<?xml version="1.0" encoding="UTF-8" standalone="no"?>
<svg xmlns="http://www.w3.org/2000/svg"
     width="110.347mm" height="110.347mm"
     viewBox="0 0 417 417">
  <path id="Selection"
        fill="white"
        d="M 322.00,81.00
           C 309.28,71.90 292.46,53.23 308.38,38.61
             315.35,32.21 326.27,33.10 335.00,33.00
             335.00,33.00 350.00,32.00 350.00,32.00
             350.00,32.00 385.00,31.00 385.00,31.00
             393.07,30.91 402.05,29.04 408.98,34.42
             419.36,42.44 416.02,52.09 416.00,63.00
             416.00,63.00 414.91,90.00 414.91,90.00
             414.91,90.00 414.00,102.00 414.00,102.00
             413.99,108.46 413.34,124.27 411.56,130.00
             408.82,138.80 400.16,144.55 391.00,143.90
             381.72,143.25 370.53,130.51 364.00,124.00
             364.00,124.00 322.00,167.00 322.00,167.00
             322.00,167.00 240.00,249.00 240.00,249.00
             240.00,249.00 218.00,271.00 218.00,271.00
             208.71,280.29 203.20,287.28 189.00,286.98
             175.93,286.71 170.54,279.54 162.00,271.00
             162.00,271.00 131.00,240.00 131.00,240.00
             131.00,240.00 117.00,226.02 117.00,226.02
             115.21,224.34 113.00,221.79 110.28,222.90
             108.14,223.77 99.31,233.70 97.00,235.96
             97.00,235.96 59.42,273.27 59.42,273.27
             50.85,281.90 45.03,289.69 32.00,289.99
             28.99,290.06 25.91,290.05 23.00,289.21
             5.06,284.06 -6.34,261.72 3.36,245.00
             6.56,239.48 22.53,224.17 28.01,218.91
             28.01,218.91 61.99,184.99 61.99,184.99
             61.99,184.99 81.96,165.00 81.96,165.00
             86.30,160.56 91.87,154.03 97.01,150.83
             107.88,144.07 119.86,145.05 129.91,152.93
             129.91,152.93 142.00,165.00 142.00,165.00
             142.00,165.00 171.00,194.00 171.00,194.00
             171.00,194.00 184.00,206.99 184.00,206.99
             185.48,208.41 187.80,210.96 190.00,210.96
             192.85,210.96 197.97,205.03 200.00,203.00
             200.00,203.00 224.00,179.00 224.00,179.00
             224.00,179.00 322.00,81.00 322.00,81.00 Z
           M 363.00,140.17
           C 363.63,140.11 364.12,139.53 366.00,140.17
             368.65,141.07 375.37,147.36 376.40,150.04
             377.12,151.89 377.00,154.98 377.00,157.00
             377.00,157.00 377.00,219.00 377.00,219.00
             377.00,219.00 377.00,347.00 377.00,347.00
             377.00,357.15 379.76,378.94 369.91,384.56
             365.77,386.93 360.62,386.99 356.00,387.00
             356.00,387.00 315.00,387.00 315.00,387.00
             303.24,386.85 298.06,381.74 298.00,370.00
             298.00,370.00 298.00,314.00 298.00,314.00
             298.00,314.00 298.00,212.00 298.00,212.00
             298.00,209.91 297.88,206.94 298.60,205.00
             300.03,201.10 309.62,192.38 313.00,189.00
             313.00,189.00 345.00,157.00 345.00,157.00
             349.87,152.13 357.48,143.51 363.00,140.17 Z
           M 285.75,217.12
           C 285.75,217.12 286.00,346.00 286.00,346.00
             286.00,346.00 286.00,372.00 286.00,372.00
             285.94,376.56 285.52,380.25 281.79,383.43
             277.67,386.94 271.13,386.99 266.00,387.00
             266.00,387.00 225.00,387.00 225.00,387.00
             220.59,386.94 215.69,386.57 212.19,383.57
             207.13,379.25 207.01,373.08 207.00,367.00
             207.00,367.00 207.00,302.00 207.00,302.00
             207.00,299.98 206.88,296.89 207.60,295.04
             208.94,291.54 221.27,281.26 224.71,277.87
             224.71,277.87 249.01,253.01 249.01,253.01
             249.01,253.01 262.58,239.83 262.58,239.83
             267.21,234.94 281.00,221.75 285.75,217.12 Z
           M 116.38,240.50
           C 116.38,240.50 168.00,289.47 168.00,289.47
             172.40,292.86 178.49,295.83 184.00,296.70
             186.89,297.16 194.39,297.03 196.25,299.38
             197.95,301.66 196.75,346.75 196.75,346.75
             196.61,358.88 198.00,382.88 186.00,386.06
             183.33,386.86 180.76,386.96 178.00,387.00
             178.00,387.00 137.00,387.00 137.00,387.00
             132.01,386.98 126.27,386.61 122.19,383.35
             117.08,379.27 117.01,373.93 117.00,368.00
             117.00,368.00 117.00,283.00 117.00,283.00
             117.00,274.25 117.12,248.88 116.38,240.50 Z
           M 27.00,300.00
           C 33.53,300.00 37.75,300.08 44.00,297.53
             52.54,294.04 58.63,287.37 65.00,281.00
             65.00,281.00 89.00,257.00 89.00,257.00
             93.88,252.12 100.62,245.88 105.75,240.75
             105.75,240.75 106.00,369.00 106.00,369.00
             105.98,384.27 98.96,386.98 85.00,387.00
             85.00,387.00 45.00,387.00 45.00,387.00
             32.91,386.85 27.16,382.55 27.00,370.00
             27.00,370.00 27.00,300.00 27.00,300.00 Z" />
</svg>
